…
pl_filter4 <- pl_filter3 %>% select(-AgeClass, -WeightClassKg) %>%
  filter(!is.na(BodyweightKg) == T, !is.na(TotalKg) == T) %>%
  filter(Squat2J < 100, Bench2J < 100, Dead2J < 100) %>% #unlikely that anyone will jump 100kg+ 
  filter(Squat3J < 100, Bench3J < 100, Dead3J < 100) %>%
  mutate(BwRatio = TotalKg / BodyweightKg) %>% #weight lifted:bodyweight ratio
  mutate(WilksRaw = Wilks, BwRRaw = BwRatio, DotsRaw = Dots) %>% 
  mutate_at(c("Wilks", "BwRatio", "Dots"), 
            ~(scale(.) %>% as.vector)) %>% #scale Wilks/Dots/BwRatio and save the raw values
  mutate(CompWilks = (Wilks + BwRatio)/2, CompDots = (Dots + BwRatio)/2) #create a composite score  

miss_var_summary(pl_filter4)
```

    ## # A tibble: 46 x 3
    ##    variable     n_miss pct_miss
    ##    <chr>         <int>    <dbl>
    ##  1 Bench4Kg     423332     99.4
    ##  2 Squat4Kg     423059     99.3
    ##  3 Deadlift4Kg  421699     99.0
    ##  4 Name              0      0  
    ##  5 Sex               0      0  
    ##  6 Equipment         0      0  
    ##  7 Age               0      0  
    ##  8 BodyweightKg      0      0  
    ##  9 Squat1Kg          0      0  
    ## 10 Squat2Kg          0      0  
    ## # ... with 36 more rows
…
``` r
#find the top 0.1% of powerlifters for each of the categories below, measured by compiled Dots score 
pl_top001 <- pl_final %>% 
  group_by(Sex, Tested, Equipment) %>% 
  slice_max(order_by = CompDots, prop = 0.001) %>% 
  ungroup 

#list of top lifters in raw category
pl_top001 %>% filter(Equipment == "Raw") %>%
  select(Name, CompDots, Dots, BwRatio, BodyweightKg, DotsRaw, BwRRaw) %>% 
  arrange(desc(CompDots)) %>% 
  print(n=30)
```

    ## # A tibble: 194 x 7
    ##    Name               CompDots  Dots BwRatio BodyweightKg DotsRaw BwRRaw
    ##    <chr>                 <dbl> <dbl>   <dbl>        <dbl>   <dbl>  <dbl>
    ##  1 Andrzej Stanaszek      3.18  2.69    3.67         51.3    582.  11.7 
    ##  2 Sergey Fedosienko      3.07  2.63    3.51         58.5    577.  11.4 
    ##  3 Andrzej Stanaszek      3.04  2.55    3.53         51.4    571.  11.5 
    ##  4 Andrzej Stanaszek      3.04  2.55    3.52         51.2    571.  11.5 
    ##  5 Sergey Fedosienko      3.01  2.56    3.45         58.2    572.  11.4 
    ##  6 Andrzej Stanaszek      3.00  2.51    3.49         50.6    568.  11.4 
    ##  7 Sergey Fedosienko      2.99  2.55    3.43         58.6    571.  11.3 
    ##  8 Andrzej Stanaszek      2.97  2.48    3.46         49.9    566.  11.4 
    ##  9 Sergey Fedosienko      2.97  2.53    3.41         58.4    570.  11.3 
    ## 10 Sergey Fedosienko      2.97  2.52    3.41         57.6    569.  11.3 
    ## 11 Sergey Fedosienko      2.96  2.52    3.40         58.2    568.  11.3 
    ## 12 Marianna Gasparyan     2.95  3.40    2.50         56      640.   9.87
    ## 13 John Haack             2.94  3.00    2.88         89.6    608.  10.5 
    ## 14 John Haack             2.89  2.95    2.84         89.7    604.  10.4 
    ## 15 Michael Estrella       2.87  2.54    3.20         67.3    570.  11.0 
    ## 16 Andrzej Stanaszek      2.87  2.38    3.35         50.2    557.  11.2 
    ## 17 Andrzej Stanaszek      2.85  2.38    3.33         52.8    557.  11.2 
    ## 18 Jesse Norris           2.82  2.87    2.76         89.7    597.  10.3 
    ## 19 Taylor Atwood          2.81  2.58    3.04         73.8    573.  10.7 
    ## 20 Taylor Atwood          2.80  2.57    3.04         73.5    573.  10.7 
    ## 21 Andrzej Stanaszek      2.78  2.30    3.26         51.3    551.  11.1 
    ## 22 Andrzej Stanaszek      2.77  2.29    3.25         51.6    550.  11.0 
    ## 23 Andrzej Stanaszek      2.76  2.28    3.24         51.4    549.  11.0 
    ## 24 Michael Estrella       2.74  2.40    3.07         67.1    559.  10.8 
    ## 25 Keith McHoney          2.73  2.41    3.05         68.3    560.  10.7 
    ## 26 Stefanie Cohen         2.72  3.12    2.31         54.8    617.   9.58
    ## 27 Jawon Garrison         2.71  2.62    2.80         82.2    577.  10.3 
    ## 28 Charles Okpoko         2.70  2.34    3.05         65.8    554.  10.7 
    ## 29 Sergey Fedosienko      2.69  2.25    3.12         58.6    547.  10.8 
    ## 30 Taylor Atwood          2.67  2.44    2.91         73.8    562.  10.5 
    ## # ... with 164 more rows
…
``` r
pl_top001 %>% filter(Equipment == "Raw") %>% 
  arrange(desc(DotsRaw)) %>% 
  select(Name, DotsRaw, BwRRaw) %>% 
  print(n = 5)
```

    ## # A tibble: 194 x 3
    ##   Name                DotsRaw BwRRaw
    ##   <chr>                 <dbl>  <dbl>
    ## 1 Marianna Gasparyan     640.   9.87
    ## 2 Kristy Hawkins         632.   8.70
    ## 3 Kristy Hawkins         631.   8.69
    ## 4 Hunter Henderson #1    625.   8.57
    ## 5 Stefanie Cohen         617.   9.58
    ## # ... with 189 more rows
…
